<svg width="32" height="32" viewBox="0 0 32 32" fill="none" xmlns="http://www.w3.org/2000/svg" opacity="0.4">
<path d="M25.698 10.6184C25.81 10.5067 25.8988 10.374 25.9595 10.2279C26.0201 10.0819 26.0513 9.92527 26.0513 9.76712C26.0513 9.60896 26.0201 9.45237 25.9595 9.3063C25.8988 9.16022 25.81 9.02754 25.698 8.91586L23.0457 6.26348C22.9348 6.14865 22.8021 6.05705 22.6554 5.99404C22.5087 5.93102 22.3509 5.89786 22.1913 5.89647C22.0316 5.89508 21.8733 5.9255 21.7256 5.98596C21.5778 6.04641 21.4435 6.13569 21.3307 6.24858C21.2178 6.36147 21.1285 6.49572 21.068 6.64348C21.0076 6.79124 20.9772 6.94957 20.9785 7.10922C20.9799 7.26886 21.0131 7.42663 21.0761 7.57332C21.1391 7.72001 21.2307 7.85269 21.3456 7.9636L23.9979 10.6184C24.2234 10.8438 24.5292 10.9704 24.848 10.9704C25.1668 10.9704 25.4726 10.8438 25.698 10.6184ZM11.5513 23.065C11.6661 23.176 11.7577 23.3086 11.8207 23.4553C11.8837 23.602 11.9169 23.7598 11.9183 23.9194C11.9197 24.0791 11.8892 24.2374 11.8288 24.3852C11.7683 24.5329 11.6791 24.6672 11.5662 24.7801C11.4533 24.893 11.319 24.9822 11.1713 25.0427C11.0235 25.1031 10.8652 25.1336 10.7055 25.1322C10.5459 25.1308 10.3881 25.0976 10.2414 25.0346C10.0947 24.9716 9.96205 24.88 9.85114 24.7652L7.19637 22.1128C7.08153 22.0019 6.98993 21.8692 6.92692 21.7225C6.8639 21.5758 6.83074 21.4181 6.82935 21.2584C6.82796 21.0988 6.85838 20.9404 6.91884 20.7927C6.97929 20.6449 7.06857 20.5107 7.18146 20.3978C7.29435 20.2849 7.4286 20.1956 7.57636 20.1351C7.72413 20.0747 7.88245 20.0443 8.0421 20.0457C8.20174 20.047 8.35951 20.0802 8.5062 20.1432C8.6529 20.2062 8.78557 20.2978 8.89648 20.4127L11.5513 23.065ZM31.0581 0.941908C30.7595 0.643291 30.4051 0.406411 30.015 0.244797C29.6249 0.0831825 29.2067 0 28.7845 0C28.3622 0 27.9441 0.0831825 27.554 0.244797C27.1638 0.406411 26.8094 0.643291 26.5108 0.941908L25.3325 2.12261L24.9333 1.72824C24.5203 1.31555 24.0223 0.997945 23.4739 0.797577C22.9255 0.59721 22.3399 0.518908 21.7582 0.568133C21.1764 0.617359 20.6123 0.792927 20.1054 1.08259C19.5985 1.37225 19.1608 1.76903 18.823 2.24525C17.7932 2.04403 16.7261 2.17896 15.7788 2.63017C14.8315 3.08138 14.0542 3.82498 13.5615 4.75137C13.0688 5.67777 12.8868 6.73794 13.0422 7.77563C13.1976 8.81331 13.6823 9.77361 14.4249 10.515L15.6825 11.7726L11.8062 15.6466L10.5485 14.3889C9.80703 13.6461 8.84645 13.1611 7.80843 13.0057C6.77041 12.8502 5.70991 13.0324 4.78334 13.5255C3.85676 14.0186 3.11316 14.7963 2.66222 15.7441C2.21127 16.6919 2.07685 17.7595 2.27878 18.7895C1.80216 19.1273 1.40502 19.565 1.1151 20.0722C0.825187 20.5793 0.649475 21.1437 0.600242 21.7258C0.551009 22.3079 0.629442 22.8937 0.830062 23.4423C1.03068 23.991 1.34865 24.4892 1.76177 24.9022L2.15854 25.2966L0.94177 26.511C0.338765 27.114 -1.10049e-08 27.9318 0 28.7846C1.10049e-08 29.6374 0.338765 30.4552 0.94177 31.0582C1.54478 31.6612 2.36263 32 3.2154 32C4.06818 32 4.88603 31.6612 5.48904 31.0582L6.70581 29.8439L7.10258 30.2406C7.51576 30.6532 8.01398 30.9706 8.56248 31.1708C9.11098 31.371 9.69655 31.4491 10.2783 31.3996C10.8601 31.3502 11.4241 31.1744 11.931 30.8845C12.4378 30.5946 12.8753 30.1976 13.2129 29.7212C14.2427 29.9224 15.3099 29.7875 16.2572 29.3363C17.2045 28.8851 17.9817 28.1415 18.4744 27.2151C18.9671 26.2887 19.1492 25.2285 18.9937 24.1908C18.8383 23.1532 18.3536 22.1929 17.6111 21.4515L16.3534 20.1938L20.2298 16.3223L21.4874 17.58C22.2289 18.3228 23.1895 18.8078 24.2275 18.9632C25.2655 19.1187 26.326 18.9364 27.2526 18.4434C28.1792 17.9503 28.9228 17.1725 29.3737 16.2248C29.8247 15.277 29.9591 14.2094 29.7572 13.1794C30.2338 12.8416 30.6309 12.4038 30.9208 11.8967C31.2107 11.3895 31.3865 10.8252 31.4357 10.2431C31.4849 9.66102 31.4065 9.0752 31.2059 8.52656C31.0053 7.97791 30.6873 7.47968 30.2742 7.06665L29.8774 6.67228L31.0557 5.49398C31.3543 5.19543 31.5912 4.84097 31.7528 4.45086C31.9144 4.06075 31.9976 3.64262 31.9976 3.22035C31.9976 2.79809 31.9144 2.37996 31.7528 1.98984C31.5912 1.59973 31.3543 1.24527 31.0557 0.946718M28.1773 4.97217L27.0302 3.82513L28.2085 2.64683C28.3606 2.49441 28.5671 2.40865 28.7824 2.40842C28.9977 2.4082 29.2044 2.49352 29.3568 2.64563C29.5092 2.79774 29.595 3.00416 29.5952 3.2195C29.5954 3.43484 29.5101 3.64144 29.358 3.79387L28.1773 4.97217ZM18.5297 14.6198L14.6509 18.4937L13.5039 17.3467L17.3802 13.4727L18.5297 14.6198ZM5.00569 28.1437L3.78892 29.3581C3.63682 29.5102 3.43051 29.5957 3.2154 29.5957C3.00029 29.5957 2.79399 29.5102 2.64189 29.3581C2.48978 29.206 2.40433 28.9997 2.40433 28.7846C2.40433 28.5695 2.48978 28.3632 2.64189 28.2111L3.85866 26.9967L5.00569 28.1437ZM20.9608 3.42836C21.2624 3.12747 21.671 2.9585 22.097 2.9585C22.523 2.9585 22.9316 3.12747 23.2332 3.42836L28.5716 8.76677C28.7662 8.96103 28.9077 9.20191 28.9827 9.46641C29.0576 9.73092 29.0636 10.0102 28.9999 10.2777C28.9362 10.5451 28.8051 10.7918 28.619 10.9942C28.4329 11.1965 28.198 11.3478 27.9368 11.4336C27.7758 11.486 27.6276 11.5719 27.5021 11.6856C27.3766 11.7993 27.2765 11.9382 27.2084 12.0933C27.1403 12.2483 27.1057 12.416 27.1069 12.5854C27.1081 12.7547 27.1451 12.9219 27.2154 13.076C27.4573 13.6072 27.5051 14.2065 27.3506 14.7694C27.196 15.3322 26.8489 15.8231 26.3697 16.1564C25.8905 16.4897 25.3096 16.6443 24.7281 16.5933C24.1466 16.5424 23.6015 16.289 23.1875 15.8774L16.125 8.81486C15.7092 8.40231 15.452 7.85643 15.3987 7.27312C15.3454 6.68981 15.4993 6.10637 15.8334 5.62527C16.1676 5.14417 16.6605 4.79619 17.2257 4.64245C17.7909 4.48871 18.3922 4.53904 18.924 4.7846C19.0782 4.85533 19.2456 4.89262 19.4153 4.89404C19.5849 4.89546 19.7529 4.86097 19.9082 4.79283C20.0636 4.7247 20.2028 4.62446 20.3166 4.4987C20.4305 4.37295 20.5164 4.22453 20.5688 4.06319C20.6475 3.8236 20.7818 3.60605 20.9608 3.42836ZM5.32071 16.089C5.55208 15.8574 5.82685 15.6736 6.12929 15.5482C6.43174 15.4229 6.75594 15.3583 7.08335 15.3583C7.41075 15.3583 7.73495 15.4229 8.0374 15.5482C8.33984 15.6736 8.61461 15.8574 8.84598 16.089L15.9086 23.154C16.3217 23.5669 16.5766 24.1119 16.6287 24.6937C16.6808 25.2755 16.5269 25.857 16.1937 26.3368C15.8606 26.8166 15.3695 27.1641 14.8061 27.3186C14.2428 27.473 13.6432 27.4247 13.1119 27.1819C12.9577 27.1111 12.7903 27.0739 12.6207 27.0724C12.451 27.071 12.283 27.1055 12.1277 27.1736C11.9723 27.2418 11.8332 27.342 11.7193 27.4678C11.6055 27.5935 11.5195 27.7419 11.4671 27.9033C11.3814 28.1642 11.2304 28.3989 11.0283 28.5849C10.8263 28.7709 10.58 28.9021 10.3129 28.966C10.0458 29.0299 9.76674 29.0243 9.50239 28.9498C9.23805 28.8754 8.99717 28.7344 8.8027 28.5405L3.46429 23.1997C3.26913 23.0057 3.12702 22.7648 3.05155 22.5001C2.97608 22.2354 2.96977 21.9558 3.03322 21.688C3.09667 21.4202 3.22776 21.1732 3.41396 20.9705C3.60016 20.7679 3.83524 20.6164 4.09672 20.5305C4.25775 20.478 4.40588 20.3922 4.53141 20.2785C4.65694 20.1648 4.75703 20.0259 4.82514 19.8708C4.89325 19.7158 4.92783 19.5481 4.92662 19.3787C4.92541 19.2094 4.88844 19.0422 4.81813 18.8881C4.60643 18.4254 4.54134 17.909 4.63161 17.4082C4.72187 16.9075 4.96317 16.4463 5.32311 16.0866" fill="black"/>
</svg>
